…
For a preview of prepared data, we now see  
- 977 EVTYPE is reduced to 317 Events with major event categorized ready  
- all 48 event categorized and shows up  


```r
storm_event %>% count(Event, sort = TRUE) %>% tibble()
```

```
## # A tibble: 317 x 2
##    Event                         n
##    <chr>                     <int>
##  1 Thunderstorm Wind        324815
##  2 Hail                     288829
##  3 Tornado                   60687
##  4 Flash Flood               55038
##  5 Flood                     29876
##  6 High Wind                 22252
##  7 Heavy Snow                15843
##  8 Lightning                 15766
##  9 Marine Thunderstorm Wind  11987
## 10 Heavy Rain                11801
## # ... with 307 more rows
```
…
## 2. RESULT

### 2.1 Across the United States, which types of events are most harmful to population health?

To have quick result first we select top 10 events out of 48, sorting by the injuries sum.  
We see tornado has way more harms to population than the following rest 9 events.


```r
df %>% count(STATE, sort = TRUE) %>% tibble()
```

```
## # A tibble: 72 x 2
##    STATE     n
##    <chr> <int>
##  1 TX    83689
##  2 KS    53419
##  3 OK    46726
##  4 MO    35632
##  5 IA    30967
##  6 NE    30249
##  7 IL    28458
##  8 AR    27095
##  9 NC    25307
## 10 GA    25234
## # ... with 62 more rows
```
…
